{
   "UsersManagerRMIObjectUrl": "rmi://localhost:28000/UsersManager",
   "ServerCertificateManagerRMIObjectUrl": "rmi://localhost:28000/ServerCertificateManager",
   "UsersFolder": "./users",
   "GeneralCertificateManagerRMIObjectUrl": "rmi://localhost:28000/GeneralCertificateManager",
   "RSAKeySize": "2048"
}